<?xml version="1.0" encoding="utf-8"?>
<!-- Generator: Adobe Illustrator 22.0.1, SVG Export Plug-In . SVG Version: 6.00 Build 0)  -->
<svg version="1.1" id="Layer_1" xmlns="http://www.w3.org/2000/svg" xmlns:xlink="http://www.w3.org/1999/xlink" x="0px" y="0px"
	 viewBox="0 0 184 184" style="enable-background:new 0 0 184 184;" xml:space="preserve">
<style type="text/css">
	.st0{fill:#FFC951;}
	.st1{fill:#4B4E56;}
</style>
<title>whitelist</title>
<g>
	<circle class="st0" cx="99.6" cy="92" r="67.1"/>
	<path class="st1" d="M91.7,9.2C46,9.2,9,46.3,9,92c0,31.9,18.3,61,47.2,74.7c1,0.4,2.1,0,2.6-0.9c0.5-1,0.1-2.1-0.9-2.6
		c0,0,0,0,0,0C18.6,144.6,1.9,97.9,20.4,58.7S85.6,2.8,124.8,21.3s55.9,65.2,37.4,104.4c-15.2,32.3-50.4,50.2-85.4,43.6
		c-1.1-0.2-2.1,0.5-2.3,1.5c-0.2,1.1,0.5,2.1,1.5,2.3c44.8,9,88.4-20.1,97.4-64.9c9-44.8-20.1-88.4-64.9-97.4
		C103,9.7,97.4,9.2,91.7,9.2z"/>
	<path class="st1" d="M138.5,43.9c0.7-0.8,0.7-2.1-0.1-2.8c0,0,0,0,0,0C110.1,15.5,66.6,17.6,41,45.8s-23.4,71.8,4.8,97.3
		s71.8,23.4,97.3-4.8c20.7-22.9,23.7-56.7,7.3-82.9c-0.5-0.9-1.8-1.3-2.7-0.7c0,0-0.1,0.1-0.1,0.1c-0.9,0.5-1.3,1.7-0.7,2.7
		c0,0.1,0.1,0.1,0.1,0.2c19.1,30.6,9.8,71-20.8,90.1s-71,9.8-90.1-20.8s-9.8-71,20.8-90.1c24.9-15.6,57.1-12.6,78.8,7.2
		C136.6,44.8,137.8,44.7,138.5,43.9z"/>
</g>
<g>
	<path class="st1" d="M72.1,107.3H49.8l-0.4-0.4V77.1l0.4-0.4h22.3l0.4,0.4v5.7l-0.4,0.4H57.6l-0.4,0.4v4.4l0.4,0.4h13.6l0.4,0.4
		v5.7l-0.4,0.4H57.6l-0.4,0.4v4.8l0.4,0.4h14.4l0.4,0.4v5.7L72.1,107.3z"/>
	<path class="st1" d="M102.7,107.3h-3.9l-0.9-0.4L90,96.4h-0.4l-7.9,10.5l-0.9,0.4h-3.9l-0.4-0.4v-5.7l7.9-9.6v-0.4l-7.4-8.3v-5.7
		l0.4-0.4h3.9l0.9,0.4l7.4,9.2H90l7.4-9.2l0.9-0.4h3.9l0.4,0.4v5.7l-7.4,8.3v0.4l7.9,9.6v5.7L102.7,107.3z"/>
	<path class="st1" d="M105.3,92c0-10.5,7-15.8,15.3-15.8c7.9,0,12.7,3.9,14,9.6l-0.4,0.4h-7.3l-0.6-0.4c-0.9-1.8-2.2-3.1-5.7-3.1
		c-3.9,0-7.4,2.2-7.4,9.2s3.5,9.2,7.4,9.2c3.5,0,4.8-1.3,5.7-3.5l0.6-0.4h7.3l0.4,0.4c-1.3,6.1-6.1,10.1-14,10.1
		C112.4,107.8,105.3,102.5,105.3,92z"/>
</g>
</svg>
